f(dim)
bcl=5
diff=40
graine=30647

ITERATIONS:
(dm,df,cl)	ex1	ex2	ex3	ex5	ex6
(10,40,5)	18	18	25	7	7
(20,40,5)	15	15	19	8	9
(40,40,5)	14	14	17	9	9
(60,40,5)	26	26	36	13	14

TIME:
(10,40,5)	0	.001562	0	0	0
(20,40,5)	.009375	.012500	0	0	0
(40,40,5)	.212500	.443750	.025000	.006250	.006250
(60,40,5)	1.731250	3.648437	.121875	.009375	.009375
